SiteID,inclProb,geometry,order,depth,y,x,lat,lon
422,0.926208,"c(700171.162155151, 915076.779030974)",1,200,915076.7790309741,700171.1621551514,53.157095719664305,-130.49640826245292
2150,0.5944320000000001,"c(688784.885543823, 932757.737421463)",2,156,932757.7374214635,688784.8855438232,53.30862196495158,-130.68419580547555
3334,0.259072,"c(704185.554550171, 908647.339616251)",3,201,908647.339616251,704185.5545501709,53.10184801860548,-130.4303381261044
5606,0.631296,"c(684624.51524353, 921506.218445697)",4,159,921506.21844569745,684624.5152435303,53.205521651922005,-130.7353179689955
8198,0.16865280000000002,"c(702579.797592163, 912933.6325594)",5,202,912933.6325593997,702579.7975921631,53.13928908778902,-130.45836137900667
11110,0.4691968,"c(692361.344223022, 911326.272705719)",6,160,911326.2727057189,692361.3442230225,53.119049175576905,-130.60954485345147
15974,0.3806208,"c(689113.335830688, 917041.329963251)",7,165,917041.3299632509,689113.3358306885,53.16825961368262,-130.6637052694963
21158,0.047308800000000005,"c(698966.844436646, 922934.982760081)",8,160,922934.9827600806,698966.8444366455,53.22669927107076,-130.52193739936976
26342,0.8964095999999999,"c(687142.634109497, 927221.275703229)",9,179,927221.2757032294,687142.6341094971,53.25813460415462,-130.70331302570267
31526,0.7950336,"c(696804.546714783, 914362.396873783)",10,196,914362.3968737827,696804.5467147827,53.14877967684922,-130.5460710142782
33254,0.2328576,"c(684980.336387634, 931269.441260648)",11,169,931269.4412606477,684980.3363876343,53.29304463222777,-130.739791672494
36710,0.4617216,"c(691330.375267029, 918410.562431201)",12,177,918410.5624312011,691330.3752670288,53.1818095067795,-130.631883964983
39302,0.9667584,"c(709723.591331482, 916267.415959627)",13,212,916267.4159596267,709723.5913314819,53.17309578834034,-130.35461833765223
47078,0.0190464,"c(683994.985527039, 915731.629341733)",14,144,915731.6293417331,683994.9855270386,53.15350191194394,-130.73894654162095
52262,0.8761344000000001,"c(692534.692985535, 919839.326745584)",15,190,919839.326745584,692534.6929855347,53.19529281659126,-130.615259067415
52451,0.7753344,"c(678520.814079285, 932497.285593321)",16,144,932497.2855933207,678520.8140792847,53.30011072045426,-130.83794310407973
53990,0.5056512000000001,"c(687279.488395691, 939127.644989754)",17,133,939127.6449897542,687279.4883956909,53.364690923332695,-130.71316112193108
57446,0.7345151999999999,"c(688593.289543152, 926268.766160307)",18,190,926268.7661603073,688593.2895431519,53.250477352414585,-130.68062299340068
57766,0.7140352,"c(700271.521965027, 911802.52747718)",19,200,911802.52747718,700271.5219650269,53.127863831559054,-130.4917958326027
62630,0.43345920000000004,"c(697406.705574036, 917696.18027401)",20,198,917696.1802740098,697406.7055740356,53.17894562696988,-130.54026857788477
65542,0.8876031999999999,"c(702515.932258606, 909123.594387712)",21,199,909123.5943877117,702515.932258606,53.105169861550465,-130.45572619051777
67814,0.29214719999999994,"c(686458.362678528, 921982.473217159)",22,169,921982.4732171586,686458.3626785278,53.21087633805355,-130.7083392712684
70406,0.60512256,"c(705946.413032532, 915553.033802435)",23,200,915553.033802435,705946.4130325317,53.16461036227268,-130.41046973720577
73187,0.84838656,"c(680984.191230774, 935533.409761384)",24,131,935533.4097613845,680984.1912307739,53.328761210678955,-130.80408170421575
78182,0.80941056,"c(690728.216407776, 912695.505173669)",25,160,912695.5051736692,690728.2164077759,53.130340829529665,-130.63528679230265
